{
  "galaxy.meteor.com": {
    "env": {
      "MONGO_URL": "mongodb://mitqoadmin:V5EVkLXjsHNxntYz@mitqo0-shard-00-00-dgttc.mongodb.net:27017,mitqo0-shard-00-01-dgttc.mongodb.net:27017,mitqo0-shard-00-02-dgttc.mongodb.net:27017/mitqoDB?ssl=true&replicaSet=mitqo0-shard-0&authSource=admin"
    }
  }
}
